altaServicio
Llamada:
{
    "service": "SIBBACServiceServicios",
    "action": "altaServicio",
    "filters": {
        "idRegla": "1",
        "idAlias" : "77681",
        "idServicio" : "1"
    }
}

Respuesta:
